__size_of_CANInitialize 0 0 ABS 0
initialize@init_flag 2E 0 COMRAM 1
__S0 30000E 0 ABS 0
__S1 44 0 ABS 0
__S2 0 0 ABS 0
_ISR 8 0 CODE 0
__Hintentry 0 0 ABS 0
__Lintentry 0 0 ABS 0
CANSetMask@ptr 20 0 COMRAM 1
CANInitialize@FilterConfig1 2C 0 COMRAM 1
CANSetMask@type 1E 0 COMRAM 1
__size_of_CANSetFilter 0 0 ABS 0
CANSendMessage@DataLen 20 0 COMRAM 1
CANInitialize@FilterConfig2 2D 0 COMRAM 1
_main 410 0 CODE 0
___sp 0 0 STACK 2
btemp 43 0 COMRAM 1
CANIDToRegs@Value 18 0 COMRAM 1
start 16 0 CODE 0
_TMR0L FD6 0 ABS 0
_TRISB F93 0 ABS 0
_TRISC F94 0 ABS 0
__Hirdata 0 0 CODE 0
__Lirdata 0 0 CODE 0
__HRAM 0 0 ABS 0
__LRAM 1 0 ABS 0
__Hconfig 30000E 0 CONFIG 0
__Lconfig 300000 0 CONFIG 0
main@i 3D 0 COMRAM 1
__Hbigram 0 0 ABS 0
__Lbigram 0 0 ABS 0
__Hrparam 0 0 COMRAM 1
__Lrparam 0 0 COMRAM 1
__Hram 0 0 ABS 0
__Lram 0 0 ABS 0
__Hcomram 0 0 ABS 0
__Lcomram 0 0 ABS 0
__Hsfr 0 0 ABS 0
__Lsfr 0 0 ABS 0
__Hbss 0 0 RAM 1
CANIDToRegs@ptr F 0 COMRAM 1
__Lbss 0 0 RAM 1
___param_bank 10 0 ABS 0
__Hnvrram 0 0 COMRAM 1
__Lnvrram 0 0 COMRAM 1
CANIDToRegs@type 15 0 COMRAM 1
_RXB0D0 F66 0 ABS 0
int$flags 43 0 COMRAM 1
__end_of_ISR 410 0 CODE 0
__Heeprom_data 0 0 EEDATA 0
__Leeprom_data 0 0 EEDATA 0
__end_of_CANSetFilter 4F2 0 CODE 0
_PIR3bits FA4 0 ABS 0
_LATCbits F8B 0 ABS 0
__Hintsave_regs 0 0 BIGRAM 1
__Lintsave_regs 0 0 BIGRAM 1
_CANIDToRegs 1A 0 CODE 0
__Hbigbss 0 0 BIGRAM 1
__Lbigbss 0 0 BIGRAM 1
__Hintret 0 0 ABS 0
__Lintret 0 0 ABS 0
__Hramtop D00 0 RAM 0
__Lramtop D00 0 RAM 0
__Hstruct 0 0 COMRAM 1
__Lstruct 0 0 COMRAM 1
__Hbigdata 0 0 BIGRAM 1
__Lbigdata 0 0 BIGRAM 1
__Hmediumconst 0 0 MEDIUMCONST 0
__Lmediumconst 0 0 MEDIUMCONST 0
__Hfarbss 0 0 FARRAM 0
__Lfarbss 0 0 FARRAM 0
__Hintcode 16 0 CODE 0
__Lintcode 8 0 CODE 0
__Hfardata 0 0 FARRAM 0
__Lfardata 0 0 FARRAM 0
__pintcode 8 0 CODE 0
CANSendMessage@ptr 22 0 COMRAM 1
_CANCON F6F 0 ABS 0
__Habs1 0 0 ABS 0
_CIOCON F73 0 ABS 0
__Labs1 0 0 ABS 0
__HnvFARRAM 0 0 FARRAM 0
__LnvFARRAM 0 0 FARRAM 0
_CANSendMessage 2CC 0 CODE 0
__Hdata 0 0 ABS 0
__Ldata 0 0 ABS 0
stackhi CFF 0 ABS 0
__size_of_CANSetOperationMode 0 0 ABS 0
__Htemp 44 0 COMRAM 1
__Ltemp 43 0 COMRAM 1
stacklo 60 0 ABS 0
__Hrbit 0 0 COMRAM 1
__Lrbit 0 0 COMRAM 1
__Hinit 16 0 CODE 0
__Linit 16 0 CODE 0
__Hintcodelo 16 0 CODE 0
__Lintcodelo 16 0 CODE 0
__Hrbss 0 0 COMRAM 1
__end_of_main 48C 0 CODE 0
__Lrbss 0 0 COMRAM 1
__Htext 0 0 ABS 0
__Ltext 0 0 ABS 0
end_of_initialization 5E2 0 CODE 0
__size_of_CANSendMessage 0 0 ABS 0
__size_of_ISR 0 0 ABS 0
CANIDToRegs@val 11 0 COMRAM 1
_LED_timer 41 0 COMRAM 1
_CAN_timer 3F 0 COMRAM 1
_BRGCON1 F70 0 ABS 0
_BRGCON2 F71 0 ABS 0
_BRGCON3 F72 0 ABS 0
_RXB0DLC F65 0 ABS 0
_T0CONbits FD5 0 ABS 0
CANSendMessage@i 24 0 COMRAM 1
CANSendMessage@id 1A 0 COMRAM 1
CANSetMask@code 1F 0 COMRAM 1
__Hibigdata 0 0 CODE 0
__Libigdata 0 0 CODE 0
_RXB0CON F60 0 ABS 0
_RXB1CON F50 0 ABS 0
CANSendMessage@MsgFlags 21 0 COMRAM 1
__Hifardata 0 0 CODE 0
__Lifardata 0 0 CODE 0
__Hbank0 0 0 ABS 0
__Lbank0 0 0 ABS 0
__Hbank1 0 0 ABS 0
__Lbank1 0 0 ABS 0
__Hbank2 0 0 ABS 0
__Lbank2 0 0 ABS 0
__Hbank3 0 0 ABS 0
__Lbank3 0 0 ABS 0
__Hbank4 0 0 ABS 0
__Lbank4 0 0 ABS 0
_CANSTAT F6E 0 ABS 0
__Hbank5 0 0 ABS 0
__Lbank5 0 0 ABS 0
__Hpowerup 16 0 CODE 0
__Lpowerup 16 0 CODE 0
__Hbank6 0 0 ABS 0
__Lbank6 0 0 ABS 0
__Hbank7 0 0 ABS 0
__Lbank7 0 0 ABS 0
CANInitialize@PROPSEG 25 0 COMRAM 1
__Hbank8 0 0 ABS 0
__Lbank8 0 0 ABS 0
__Htext0 0 0 ABS 0
__Ltext0 0 0 ABS 0
__Hbank9 0 0 ABS 0
__Lbank9 0 0 ABS 0
_BRGCON2bits F71 0 ABS 0
__Htext1 0 0 ABS 0
__Ltext1 0 0 ABS 0
__ptext0 410 0 CODE 0
_BRGCON3bits F72 0 ABS 0
__Htext2 0 0 ABS 0
__Ltext2 0 0 ABS 0
__ptext1 4F2 0 CODE 0
__Htext3 0 0 ABS 0
__Ltext3 0 0 ABS 0
__ptext2 5C0 0 CODE 0
__Htext4 0 0 ABS 0
__Ltext4 0 0 ABS 0
__ptext3 178 0 CODE 0
__Htext5 0 0 ABS 0
__Ltext5 0 0 ABS 0
__ptext4 5F0 0 CODE 0
__Htext6 0 0 ABS 0
__Ltext6 0 0 ABS 0
__ptext5 58A 0 CODE 0
__Htext7 0 0 ABS 0
__Ltext7 0 0 ABS 0
__ptext6 48C 0 CODE 0
__HbssCOMRAM 0 0 ABS 0
__LbssCOMRAM 0 0 ABS 0
__Htext8 0 0 ABS 0
__Ltext8 0 0 ABS 0
__ptext7 552 0 CODE 0
__pbssCOMRAM 3F 0 COMRAM 1
__Htext9 0 0 ABS 0
__Ltext9 0 0 ABS 0
__ptext8 2CC 0 CODE 0
__size_of_CANSetBaudRate 0 0 ABS 0
__ptext9 1A 0 CODE 0
__Hclrtext 0 0 ABS 0
__Lclrtext 0 0 ABS 0
_RXB0DLCbits F65 0 ABS 0
_OSCTUNEbits F9B 0 ABS 0
_RXB0CONbits F60 0 ABS 0
_TXB0CONbits F40 0 ABS 0
__end_of__initialization 5E2 0 CODE 0
_RXB1CONbits F50 0 ABS 0
_TXB1CONbits F30 0 ABS 0
_TXB2CONbits F20 0 ABS 0
___rparam_used 1 0 ABS 0
CANSetFilter@ptr 20 0 COMRAM 1
_COMSTATbits F74 0 ABS 0
CANInitialize@PHSEG1 23 0 COMRAM 1
CANInitialize@PHSEG2 24 0 COMRAM 1
_CANSetMask 58A 0 CODE 0
__Hidata 0 0 CODE 0
__Lidata 0 0 CODE 0
__Hrdata 0 0 COMRAM 1
__Lrdata 0 0 COMRAM 1
CANSetFilter@type 1E 0 COMRAM 1
__Hidloc 200008 0 IDLOC 0
__Lidloc 200000 0 IDLOC 0
__Hstack 0 0 STACK 2
__Lstack 0 0 STACK 2
int_func 38E 0 CODE 0
__Hparam 0 0 COMRAM 1
__Lparam 0 0 COMRAM 1
CANSetBaudRate@PHSEG1 10 0 COMRAM 1
CANSetBaudRate@PHSEG2 11 0 COMRAM 1
__end_of_init_timers 5DA 0 CODE 0
__Hspace_0 30000E 0 ABS 0
__HcstackCOMRAM 0 0 ABS 0
__Lspace_0 0 0 ABS 0
__LcstackCOMRAM 0 0 ABS 0
CANInitialize@BRP 22 0 COMRAM 1
__pcstackCOMRAM 1 0 COMRAM 1
__Hspace_1 44 0 ABS 0
__Lspace_1 0 0 ABS 0
__Hsmallconst 0 0 SMALLCONST 0
__Lsmallconst 0 0 SMALLCONST 0
__Hspace_2 0 0 ABS 0
__Lspace_2 0 0 ABS 0
__Hnvbit 0 0 COMRAM 1
__Lnvbit 0 0 COMRAM 1
__Hcinit 0 0 ABS 0
__Lcinit 0 0 ABS 0
__pcinit 5DA 0 CODE 0
CANSetBaudRate@SJW 14 0 COMRAM 1
__ramtop D00 0 RAM 0
__mediumconst 0 0 MEDIUMCONST 0
__size_of_main 0 0 ABS 0
__Hconst 0 0 CODE 0
__Lconst 0 0 CODE 0
_initialize 4F2 0 CODE 0
CANSetBaudRate@PROPSEG 12 0 COMRAM 1
__end_of_CANSetBaudRate 58A 0 CODE 0
CANSetMask@val 1A 0 COMRAM 1
_init_timers 5C0 0 CODE 0
__size_of_init_timers 0 0 ABS 0
__Hbank10 0 0 ABS 0
__Lbank10 0 0 ABS 0
__Hbank11 0 0 ABS 0
__Lbank11 0 0 ABS 0
__CFG_PWRT$ON 0 0 ABS 0
__Hbank12 0 0 ABS 0
__Lbank12 0 0 ABS 0
CANSetBaudRate@flags 13 0 COMRAM 1
___inthi_sp 0 0 STACK 2
_CANSetOperationMode 5F0 0 CODE 0
___intlo_sp 0 0 STACK 2
_OSCCONbits FD3 0 ABS 0
_INTCONbits FF2 0 ABS 0
__Hend_init 1A 0 CODE 0
__Lend_init 16 0 CODE 0
_RXB0SIDH F61 0 ABS 0
_RXF0SIDH F00 0 ABS 0
_RXF1SIDH F04 0 ABS 0
_RXF2SIDH F08 0 ABS 0
_RXF3SIDH F0C 0 ABS 0
_RXM0SIDH F18 0 ABS 0
_RXF4SIDH F10 0 ABS 0
_RXM1SIDH F1C 0 ABS 0
_RXF5SIDH F14 0 ABS 0
__smallconst 0 0 SMALLCONST 0
__end_of_initialize 552 0 CODE 0
__Hreset_vec 4 0 CODE 0
__Lreset_vec 0 0 CODE 0
__end_of_CANInitialize 2CC 0 CODE 0
__end_of_CANIDToRegs 178 0 CODE 0
__accesstop 60 0 ABS 0
__Hintcode_body 0 0 ABS 0
__Lintcode_body 0 0 ABS 0
__pintcode_body 38E 0 CODE 0
_CANSetFilter 48C 0 CODE 0
intlevel0 0 0 CODE 0
intlevel1 0 0 CODE 0
intlevel2 0 0 CODE 0
intlevel3 0 0 CODE 0
CANSetOperationMode@mode F 0 COMRAM 1
_CANInitialize 178 0 CODE 0
CANSetFilter@val 1A 0 COMRAM 1
__size_of_CANIDToRegs 0 0 ABS 0
start_initialization 5DA 0 CODE 0
CANSetBaudRate@BRP F 0 COMRAM 1
CANInitialize@config 26 0 COMRAM 1
CANInitialize@SJW 2B 0 COMRAM 1
__CFG_OSC$IRCIO67 0 0 ABS 0
CANSetFilter@code 1F 0 COMRAM 1
main@MessageData 35 0 COMRAM 1
__end_of_CANSetMask 5C0 0 CODE 0
CANSendMessage@Data 1E 0 COMRAM 1
__size_of_CANSetMask 0 0 ABS 0
_CANSetBaudRate 552 0 CODE 0
__initialization 5DA 0 CODE 0
__end_of_CANSendMessage 38E 0 CODE 0
__activetblptr 2 0 ABS 0
_RXB0SIDLbits F62 0 ABS 0
__end_of_CANSetOperationMode 602 0 CODE 0
__size_of_initialize 0 0 ABS 0
%segments
reset_vec 0 3 CODE 0 0
intcode 8 601 CODE 8 0
config 300000 30000D CONFIG 300000 0
idloc 200000 200007 IDLOC 200000 0
cstackCOMRAM 1 43 COMRAM 1 1
%locals
dist/default/production\CAN_Testv2.X.production.obj
C:\Program Files (x86)\Microchip\xc8\v1.35\include\pic18f2585.h
C:\Users\en-fsae\AppData\Local\Temp\s470.
1845 5DA 0 CODE 0
1847 5DA 0 CODE 0
1850 5DA 0 CODE 0
1865 5DA 0 CODE 0
1866 5DC 0 CODE 0
1867 5DE 0 CODE 0
1868 5E0 0 CODE 0
1874 5E2 0 CODE 0
1876 5E2 0 CODE 0
1877 5E4 0 CODE 0
1879 5E6 0 CODE 0
1880 5E8 0 CODE 0
1881 5EA 0 CODE 0
1882 5EC 0 CODE 0
main.c
87 410 0 CODE 0
88 410 0 CODE 0
90 414 0 CODE 0
91 42C 0 CODE 0
90 43C 0 CODE 0
94 442 0 CODE 0
95 44A 0 CODE 0
99 452 0 CODE 0
100 464 0 CODE 0
101 466 0 CODE 0
93 48A 0 CODE 0
main.c
45 4F2 0 CODE 0
47 4F2 0 CODE 0
48 4F4 0 CODE 0
49 4F6 0 CODE 0
50 4F8 0 CODE 0
52 4FA 0 CODE 0
54 4FE 0 CODE 0
55 502 0 CODE 0
57 506 0 CODE 0
59 508 0 CODE 0
61 50C 0 CODE 0
62 510 0 CODE 0
63 514 0 CODE 0
64 516 0 CODE 0
65 51E 0 CODE 0
66 526 0 CODE 0
67 52E 0 CODE 0
71 548 0 CODE 0
72 54C 0 CODE 0
73 550 0 CODE 0
main.c
27 5C0 0 CODE 0
29 5C0 0 CODE 0
30 5C2 0 CODE 0
31 5C4 0 CODE 0
33 5C6 0 CODE 0
34 5C8 0 CODE 0
35 5CA 0 CODE 0
36 5CC 0 CODE 0
37 5CE 0 CODE 0
38 5D0 0 CODE 0
40 5D2 0 CODE 0
41 5D6 0 CODE 0
42 5D8 0 CODE 0
can18xx8.c
152 178 0 CODE 0
164 17A 0 CODE 0
172 180 0 CODE 0
174 19A 0 CODE 0
176 1A0 0 CODE 0
177 1A8 0 CODE 0
180 1AA 0 CODE 0
183 1AE 0 CODE 0
184 1C8 0 CODE 0
186 1E2 0 CODE 0
189 1E4 0 CODE 0
193 1EA 0 CODE 0
194 1EA 0 CODE 0
195 1EC 0 CODE 0
196 1EE 0 CODE 0
197 1F0 0 CODE 0
198 1F0 0 CODE 0
199 1F2 0 CODE 0
201 1F6 0 CODE 0
186 1F8 0 CODE 0
205 228 0 CODE 0
206 242 0 CODE 0
207 25C 0 CODE 0
208 276 0 CODE 0
209 290 0 CODE 0
210 2AA 0 CODE 0
213 2C4 0 CODE 0
214 2CA 0 CODE 0
can18xx8.c
236 5F0 0 CODE 0
239 5F2 0 CODE 0
242 5F6 0 CODE 0
can18xx8.c
454 58A 0 CODE 0
462 58C 0 CODE 0
463 592 0 CODE 0
465 596 0 CODE 0
468 59E 0 CODE 0
469 5BE 0 CODE 0
can18xx8.c
492 48C 0 CODE 0
500 48E 0 CODE 0
503 490 0 CODE 0
507 494 0 CODE 0
511 498 0 CODE 0
515 49C 0 CODE 0
519 4A0 0 CODE 0
523 4A4 0 CODE 0
525 4AC 0 CODE 0
500 4AE 0 CODE 0
528 4D0 0 CODE 0
530 4F0 0 CODE 0
can18xx8.c
281 552 0 CODE 0
290 554 0 CODE 0
291 556 0 CODE 0
292 558 0 CODE 0
293 55A 0 CODE 0
294 55C 0 CODE 0
297 55E 0 CODE 0
298 566 0 CODE 0
300 56A 0 CODE 0
301 572 0 CODE 0
303 576 0 CODE 0
304 578 0 CODE 0
306 57A 0 CODE 0
307 57C 0 CODE 0
310 57E 0 CODE 0
311 582 0 CODE 0
312 586 0 CODE 0
can18xx8.c
558 2CC 0 CODE 0
567 2CC 0 CODE 0
570 2D2 0 CODE 0
571 2D6 0 CODE 0
572 2D8 0 CODE 0
573 2DA 0 CODE 0
576 2E0 0 CODE 0
577 2E4 0 CODE 0
578 2E8 0 CODE 0
579 2EA 0 CODE 0
582 2F0 0 CODE 0
583 2F4 0 CODE 0
596 2F6 0 CODE 0
600 2FC 0 CODE 0
601 300 0 CODE 0
602 320 0 CODE 0
604 322 0 CODE 0
607 342 0 CODE 0
609 346 0 CODE 0
610 348 0 CODE 0
613 34A 0 CODE 0
614 352 0 CODE 0
615 358 0 CODE 0
614 37C 0 CODE 0
631 386 0 CODE 0
638 388 0 CODE 0
can18xx8.c
341 1A 0 CODE 0
347 1A 0 CODE 0
349 22 0 CODE 0
352 26 0 CODE 0
353 48 0 CODE 0
354 70 0 CODE 0
355 74 0 CODE 0
356 98 0 CODE 0
360 9A 0 CODE 0
361 C2 0 CODE 0
362 EA 0 CODE 0
363 EE 0 CODE 0
365 116 0 CODE 0
366 122 0 CODE 0
367 142 0 CODE 0
368 146 0 CODE 0
369 15E 0 CODE 0
370 162 0 CODE 0
can18xx8.c
372 8 0 CODE 0
main.c
76 8 0 CODE 0
main.c
76 38E 0 CODE 0
78 3C0 0 CODE 0
80 3C4 0 CODE 0
82 3C6 0 CODE 0
85 3D4 0 CODE 0
