__size_of_CANInitialize 0 0 ABS 0
___awtoft@c 1B 0 COMRAM 1
__end_of_combine 147C 0 CODE 0
mpu_read@SlaveAddress 32 0 COMRAM 1
__S0 30000E 0 ABS 0
__S1 AE 0 ABS 0
__S2 0 0 ABS 0
_gyro_x_offset 88 0 BANK0 1
_gyro_y_offset 8A 0 BANK0 1
_gyro_z_offset 8C 0 BANK0 1
mpu_read@PecReg 31 0 COMRAM 1
_ISR 8 0 CODE 0
__Hintentry 0 0 ABS 0
__Lintentry 0 0 ABS 0
_gyro_x_lower 48 0 COMRAM 1
_gyro_y_lower 4A 0 COMRAM 1
_gyro_z_lower 4C 0 COMRAM 1
CANSetMask@ptr 24 0 COMRAM 1
CANInitialize@FilterConfig1 30 0 COMRAM 1
CANSetMask@type 22 0 COMRAM 1
_SGID 9F 0 BANK0 1
__size_of_convertGyroData 0 0 ABS 0
__size_of_CANSetFilter 0 0 ABS 0
_accel_x_lower 41 0 COMRAM 1
ISR@i 11 0 COMRAM 1
_accel_y_lower 43 0 COMRAM 1
CANSendMessage@DataLen 24 0 COMRAM 1
_accel_z_lower 45 0 COMRAM 1
TX_byte@Bit_counter 18 0 COMRAM 1
CANInitialize@FilterConfig2 31 0 COMRAM 1
mpu_init@i 37 0 COMRAM 1
__size_of_combine 0 0 ABS 0
_main 147C 0 CODE 0
___sp 0 0 STACK 2
CANIDToRegs@Value 1C 0 COMRAM 1
start 14 0 CODE 0
_mpu_read 10C8 0 CODE 0
__size_of_mpu_write 0 0 ABS 0
___fttol@f1 2A 0 COMRAM 1
__end_of_SendRequest 156A 0 CODE 0
___ftmul@f1 1B 0 COMRAM 1
___fttol@lval 34 0 COMRAM 1
___ftdiv@f1 20 0 COMRAM 1
_TMR0L FD6 0 ABS 0
__end_of_send_bit 14CC 0 CODE 0
_TRISC F94 0 ABS 0
_PORTA F80 0 ABS 0
__Hirdata 0 0 CODE 0
__Lirdata 0 0 CODE 0
__HRAM 0 0 ABS 0
__LRAM 1 0 ABS 0
___ftmul@f2 1E 0 COMRAM 1
PEC_calculation@BitPosition 22 0 COMRAM 1
___ftdiv@f2 23 0 COMRAM 1
__end_of_readRawGyroData F86 0 CODE 0
__Hconfig 30000E 0 CONFIG 0
__Lconfig 300000 0 CONFIG 0
?_combine 13 0 COMRAM 1
___ftpack E3A 0 CODE 0
__size_of_convertAccelData 0 0 ABS 0
___ftdiv@f3 2A 0 COMRAM 1
__Hbigram 0 0 ABS 0
__Lbigram 0 0 ABS 0
__Hrparam 0 0 ABS 0
__Lrparam 0 0 ABS 0
__Hram 0 0 ABS 0
__Lram 0 0 ABS 0
__Hcomram 0 0 ABS 0
__Lcomram 0 0 ABS 0
__size_of_RX_byte 0 0 ABS 0
__Hsfr 0 0 ABS 0
__Lsfr 0 0 ABS 0
__Hbss 0 0 RAM 1
CANIDToRegs@ptr 13 0 COMRAM 1
__Lbss 0 0 RAM 1
__Hnvrram 0 0 COMRAM 1
_errno 86 0 BANK0 1
__Lnvrram 0 0 COMRAM 1
CANIDToRegs@type 19 0 COMRAM 1
_RXB0D0 F66 0 ABS 0
___ftmul@cntr 28 0 COMRAM 1
?_mpu_read 25 0 COMRAM 1
__end_of_ISR AE2 0 CODE 0
___ftdiv@cntr 29 0 COMRAM 1
__size_of_getAccelGyro 0 0 ABS 0
_ADCON0 FC2 0 ABS 0
_send_bit 14A4 0 CODE 0
mpu_read@Pec 28 0 COMRAM 1
_stop_bit 14F4 0 CODE 0
?___fttol 2A 0 COMRAM 1
__Heeprom_data 0 0 EEDATA 0
__Leeprom_data 0 0 EEDATA 0
__end_of_CANSetFilter 11F6 0 CODE 0
mpu_init@AFS_SEL 36 0 COMRAM 1
_PIR3bits FA4 0 ABS 0
?___ftmul 1B 0 COMRAM 1
_LATCbits F8B 0 ABS 0
__size_of_TX_byte 0 0 ABS 0
__Hintsave_regs 0 0 BIGRAM 1
_SSPADD FC8 0 ABS 0
__Lintsave_regs 0 0 BIGRAM 1
_CANIDToRegs 6A0 0 CODE 0
_mpu_init 7FE 0 CODE 0
__Hbigbss 0 0 BIGRAM 1
__Lbigbss 0 0 BIGRAM 1
?___ftdiv 20 0 COMRAM 1
__Hintret 0 0 ABS 0
__Lintret 0 0 ABS 0
__Hramtop D00 0 RAM 0
__Lramtop D00 0 RAM 0
__Hstruct 0 0 COMRAM 1
__Lstruct 0 0 COMRAM 1
__Hbigdata 0 0 BIGRAM 1
__Lbigdata 0 0 BIGRAM 1
__Hmediumconst 0 0 MEDIUMCONST 0
___awtoft 125C 0 CODE 0
__Lmediumconst 0 0 MEDIUMCONST 0
__Hfarbss 0 0 FARRAM 0
__Lfarbss 0 0 FARRAM 0
__Hintcode 14 0 CODE 0
__Lintcode 8 0 CODE 0
__Hfardata 0 0 FARRAM 0
_ADRESH FC4 0 ABS 0
__Lfardata 0 0 FARRAM 0
__pintcode 8 0 CODE 0
CANSendMessage@ptr 27 0 COMRAM 1
_CANCON F6F 0 ABS 0
__Habs1 0 0 ABS 0
_CIOCON F73 0 ABS 0
__Labs1 0 0 ABS 0
_ADRESL FC3 0 ABS 0
_INTCON FF2 0 ABS 0
_tireID A5 0 BANK0 1
___ftmul@f3_as_product 25 0 COMRAM 1
__HnvFARRAM 0 0 FARRAM 0
__LnvFARRAM 0 0 FARRAM 0
__end_of_Receive_bit 14F4 0 CODE 0
__end_of___ftpack EE2 0 CODE 0
?___ftpack 13 0 COMRAM 1
Receive_bit@Ack_bit 14 0 COMRAM 1
RX_byte@ack_nack 16 0 COMRAM 1
_CANSendMessage D6C 0 CODE 0
__size_of___ftpack 0 0 ABS 0
__size_of___fttol 0 0 ABS 0
TX_byte@bit_out 19 0 COMRAM 1
__Hdata 0 0 ABS 0
__Ldata 0 0 ABS 0
mpu_read@arr 29 0 COMRAM 1
stackhi 9FF 0 ABS 0
RX_byte@RX_buffer 18 0 COMRAM 1
__size_of_CANSetOperationMode 0 0 ABS 0
__HcstackBANK0 0 0 ABS 0
__LcstackBANK0 0 0 ABS 0
__pcstackBANK0 8E 0 BANK0 1
__Htemp 0 0 COMRAM 1
__Ltemp 0 0 COMRAM 1
stacklo AE 0 ABS 0
CANsendData@id 90 0 BANK0 1
__Hrbit 0 0 COMRAM 1
__Lrbit 0 0 COMRAM 1
_mpu_write 1334 0 CODE 0
__Hinit 14 0 CODE 0
__Linit 14 0 CODE 0
__Hintcodelo 14 0 CODE 0
__Lintcodelo 14 0 CODE 0
__Hrbss 0 0 COMRAM 1
__end_of_main 14A4 0 CODE 0
__Lrbss 0 0 COMRAM 1
_gyro_x 71 0 BANK0 1
_timers 60 0 BANK0 1
_gyro_y 74 0 BANK0 1
_gyro_z 77 0 BANK0 1
__Htext 0 0 ABS 0
__Ltext 0 0 ABS 0
__CFG_OSC$HS 0 0 ABS 0
_inputs AB 0 BANK0 1
__HdataBANK0 0 0 ABS 0
__LdataBANK0 0 0 ABS 0
RX_byte@Bit_Counter 17 0 COMRAM 1
__pdataBANK0 9F 0 BANK0 1
___ftmul@sign 29 0 COMRAM 1
end_of_initialization 12E8 0 CODE 0
___ftdiv@sign 2E 0 COMRAM 1
__size_of_CANSendMessage 0 0 ABS 0
__end_of_convertGyroData 6A0 0 CODE 0
__size_of_ISR 0 0 ABS 0
CANIDToRegs@val 15 0 COMRAM 1
_BRGCON1 F70 0 ABS 0
_SSPCON1 FC6 0 ABS 0
_BRGCON2 F71 0 ABS 0
_SSPCON2 FC5 0 ABS 0
_BRGCON3 F72 0 ABS 0
__size_of_CANsendData 0 0 ABS 0
__size_of___awtoft 0 0 ABS 0
_start_bit 1422 0 CODE 0
_OpenI2C 151A 0 CODE 0
_RXB0DLC F65 0 ABS 0
_TRISAbits F92 0 ABS 0
_TRISBbits F93 0 ABS 0
_TRISCbits F94 0 ABS 0
_PORTCbits F82 0 ABS 0
_T0CONbits FD5 0 ABS 0
_Receive_bit 14CC 0 CODE 0
CANSendMessage@i 29 0 COMRAM 1
CANSendMessage@id 1E 0 COMRAM 1
CANSetMask@code 23 0 COMRAM 1
?___awtoft 1B 0 COMRAM 1
PEC_calculation@i 24 0 COMRAM 1
PEC_calculation@j 23 0 COMRAM 1
__Hibigdata 0 0 CODE 0
__Libigdata 0 0 CODE 0
_RXB0CON F60 0 ABS 0
_RXB1CON F50 0 ABS 0
CANSendMessage@MsgFlags 25 0 COMRAM 1
__Hifardata 0 0 CODE 0
__Lifardata 0 0 CODE 0
PEC_calculation@pec 13 0 COMRAM 1
PEC_calculation@crc 1C 0 COMRAM 1
__size_of_mpu_read 0 0 ABS 0
__Hbank0 0 0 ABS 0
__Lbank0 0 0 ABS 0
__Hbank1 0 0 ABS 0
__Lbank1 0 0 ABS 0
mpu_read@DataH 30 0 COMRAM 1
__Hbank2 0 0 ABS 0
__Lbank2 0 0 ABS 0
__Hbank3 0 0 ABS 0
__Lbank3 0 0 ABS 0
___ftmul@exp 24 0 COMRAM 1
__Hbank4 0 0 ABS 0
__Lbank4 0 0 ABS 0
_CANSTAT F6E 0 ABS 0
OpenI2C@slew 13 0 COMRAM 1
___ftdiv@exp 2D 0 COMRAM 1
__Hbank5 0 0 ABS 0
__Lbank5 0 0 ABS 0
__Hpowerup 14 0 CODE 0
_SSPSTAT FC7 0 ABS 0
__Lpowerup 14 0 CODE 0
__Hbank6 0 0 ABS 0
__Lbank6 0 0 ABS 0
PEC_calculation@temp 1A 0 COMRAM 1
__Hbank7 0 0 ABS 0
__Lbank7 0 0 ABS 0
CANInitialize@PROPSEG 29 0 COMRAM 1
__Hbank8 0 0 ABS 0
__Lbank8 0 0 ABS 0
__Htext0 0 0 ABS 0
__Ltext0 0 0 ABS 0
__Hbank9 0 0 ABS 0
__Lbank9 0 0 ABS 0
_BRGCON2bits F71 0 ABS 0
__Htext1 0 0 ABS 0
__Ltext1 0 0 ABS 0
__ptext0 147C 0 CODE 0
_BRGCON3bits F72 0 ABS 0
__Htext2 0 0 ABS 0
__Ltext2 0 0 ABS 0
__ptext1 153A 0 CODE 0
__Htext3 0 0 ABS 0
__Ltext3 0 0 ABS 0
__ptext2 AE2 0 CODE 0
__Htext4 0 0 ABS 0
__Ltext4 0 0 ABS 0
__ptext3 7FE 0 CODE 0
__Htext5 0 0 ABS 0
__Ltext5 0 0 ABS 0
__ptext4 1334 0 CODE 0
__Htext6 0 0 ABS 0
__Ltext6 0 0 ABS 0
__ptext5 1554 0 CODE 0
__end_of_initConfig BBE 0 CODE 0
__Htext7 0 0 ABS 0
__Ltext7 0 0 ABS 0
__ptext6 156A 0 CODE 0
__HbssCOMRAM 0 0 ABS 0
__LbssCOMRAM 0 0 ABS 0
__Htext8 0 0 ABS 0
__Ltext8 0 0 ABS 0
__ptext7 151A 0 CODE 0
_initConfig AE2 0 CODE 0
__pbssCOMRAM 3B 0 COMRAM 1
__Htext9 0 0 ABS 0
__Ltext9 0 0 ABS 0
__ptext8 3D0 0 CODE 0
__size_of_CANSetBaudRate 0 0 ABS 0
__ptext9 157E 0 CODE 0
__Hclrtext 0 0 ABS 0
__Lclrtext 0 0 ABS 0
PEC_calculation@shift 1B 0 COMRAM 1
_RXB0DLCbits F65 0 ABS 0
__end_of_CANsendData 125C 0 CODE 0
convertGyroData@FS_SEL 36 0 COMRAM 1
mpu_write@reg 1A 0 COMRAM 1
__end_of_stop_bit 151A 0 CODE 0
_RXB0CONbits F60 0 ABS 0
_TXB0CONbits F40 0 ABS 0
__end_of__initialization 12E8 0 CODE 0
_RXB1CONbits F50 0 ABS 0
_TXB1CONbits F30 0 ABS 0
__size_of_readRawGyroData 0 0 ABS 0
_TXB2CONbits F20 0 ABS 0
__size_of_Receive_bit 0 0 ABS 0
__size_of_mpu_init 0 0 ABS 0
mpu_write@SlaveAddress 1F 0 COMRAM 1
CANSetFilter@ptr 24 0 COMRAM 1
__size_of_stop_bit 0 0 ABS 0
_COMSTATbits F74 0 ABS 0
convertGyroData@factor 37 0 COMRAM 1
CANInitialize@PHSEG1 27 0 COMRAM 1
CANInitialize@PHSEG2 28 0 COMRAM 1
_accel_x_raw 80 0 BANK0 1
_accel_y_raw 82 0 BANK0 1
_accel_z_raw 84 0 BANK0 1
CANsendData@value 8E 0 BANK0 1
_CANSetMask 12F2 0 CODE 0
send_bit@bit_out 13 0 COMRAM 1
__Hidata 0 0 CODE 0
__Lidata 0 0 CODE 0
__Hrdata 0 0 COMRAM 1
__Lrdata 0 0 COMRAM 1
CANSetFilter@type 22 0 COMRAM 1
__Hidloc 200008 0 IDLOC 0
__Lidloc 200000 0 IDLOC 0
__end_of_RX_byte 13B0 0 CODE 0
__size_of_initConfig 0 0 ABS 0
_x_angle 7A 0 BANK0 1
_y_angle 7D 0 BANK0 1
__Hstack 0 0 STACK 2
__Lstack 0 0 STACK 2
_combine 1450 0 CODE 0
int_func 9FE 0 CODE 0
__end_of_getAccelGyro 250 0 CODE 0
mpu_init@i_2235 39 0 COMRAM 1
__Hparam 0 0 ABS 0
__Lparam 0 0 ABS 0
CANSetBaudRate@PHSEG1 14 0 COMRAM 1
CANSetBaudRate@PHSEG2 15 0 COMRAM 1
__end_of_init_timers 1554 0 CODE 0
__HcstackCOMRAM 0 0 ABS 0
__LcstackCOMRAM 0 0 ABS 0
CANInitialize@BRP 26 0 COMRAM 1
__pcstackCOMRAM 1 0 COMRAM 1
___ftpack@sign 17 0 COMRAM 1
__size_of_readRawAccelData 0 0 ABS 0
mpu_write@ErrorCounter 1E 0 COMRAM 1
_RX_byte 1372 0 CODE 0
_TX_byte 13B0 0 CODE 0
__end_of_TX_byte 13EA 0 CODE 0
__Hsmallconst 0 0 SMALLCONST 0
__Lsmallconst 0 0 SMALLCONST 0
___fttol C98 0 CODE 0
_accel_x 68 0 BANK0 1
__Hnvbit 0 0 COMRAM 1
__Lnvbit 0 0 COMRAM 1
_accel_y 6B 0 BANK0 1
__Hcinit 0 0 ABS 0
___ftmul 912 0 CODE 0
__Lcinit 0 0 ABS 0
_accel_z 6E 0 BANK0 1
__pcinit 12B0 0 CODE 0
CANSetBaudRate@SJW 18 0 COMRAM 1
___ftdiv BBE 0 CODE 0
__ramtop D00 0 RAM 0
__mediumconst 0 0 MEDIUMCONST 0
__size_of_main 0 0 ABS 0
__Hconst 0 0 CODE 0
__size_of_DummyCommand 0 0 ABS 0
__Lconst 0 0 CODE 0
_readRawAccelData F86 0 CODE 0
mpu_read@ErrorCounter 2F 0 COMRAM 1
_CANsendData 11F6 0 CODE 0
CANSetBaudRate@PROPSEG 16 0 COMRAM 1
___fttol@exp1 38 0 COMRAM 1
__HidataBANK0 0 0 ABS 0
__size_of___ftdiv 0 0 ABS 0
__LidataBANK0 0 0 ABS 0
__end_of_CANSetBaudRate 1422 0 CODE 0
getAccelGyro@data_ready 99 0 BANK0 1
__pidataBANK0 1592 0 CODE 0
TX_byte@Tx_buffer 16 0 COMRAM 1
CANSetMask@val 1E 0 COMRAM 1
_init_timers 153A 0 CODE 0
_readRawGyroData EE2 0 CODE 0
TX_byte@Ack_bit 17 0 COMRAM 1
DummyCommand@byte 1A 0 COMRAM 1
___awtoft@sign 1F 0 COMRAM 1
__end_of_readRawAccelData 102A 0 CODE 0
___ftpack@arg 13 0 COMRAM 1
_convertAccelData 102A 0 CODE 0
__end_of_DummyCommand 157E 0 CODE 0
__size_of_init_timers 0 0 ABS 0
__HbssBANK0 0 0 ABS 0
__LbssBANK0 0 0 ABS 0
__Hbank10 0 0 ABS 0
__pbssBANK0 60 0 BANK0 1
__Lbank10 0 0 ABS 0
__Hbank11 0 0 ABS 0
__Lbank11 0 0 ABS 0
__CFG_PWRT$ON 0 0 ABS 0
__Hbank12 0 0 ABS 0
__Lbank12 0 0 ABS 0
_convertGyroData 53C 0 CODE 0
__Htext10 0 0 ABS 0
__Ltext10 0 0 ABS 0
__size_of_SendRequest 0 0 ABS 0
__Htext20 0 0 ABS 0
__Ltext20 0 0 ABS 0
__ptext10 12F2 0 CODE 0
CANSetBaudRate@flags 17 0 COMRAM 1
__Htext30 0 0 ABS 0
__Htext11 0 0 ABS 0
__Ltext30 0 0 ABS 0
__Ltext11 0 0 ABS 0
__ptext20 1422 0 CODE 0
__Htext21 0 0 ABS 0
__Ltext21 0 0 ABS 0
__ptext11 1162 0 CODE 0
__ptext30 912 0 CODE 0
__Htext31 0 0 ABS 0
__Htext12 0 0 ABS 0
__Ltext31 0 0 ABS 0
__Ltext12 0 0 ABS 0
__ptext21 13B0 0 CODE 0
__Htext22 0 0 ABS 0
__Ltext22 0 0 ABS 0
__ptext12 13EA 0 CODE 0
__ptext31 E3A 0 CODE 0
__Htext32 0 0 ABS 0
__Htext13 0 0 ABS 0
mpu_read@reg 25 0 COMRAM 1
__Ltext32 0 0 ABS 0
__Ltext13 0 0 ABS 0
__ptext22 1372 0 CODE 0
__Htext23 0 0 ABS 0
__Ltext23 0 0 ABS 0
__ptext13 18 0 CODE 0
__ptext32 11F6 0 CODE 0
_DummyCommand 156A 0 CODE 0
_ADCON0bits FC2 0 ABS 0
__Htext33 0 0 ABS 0
__Htext14 0 0 ABS 0
__Ltext33 0 0 ABS 0
__Ltext14 0 0 ABS 0
_ADCON1bits FC1 0 ABS 0
__ptext23 14A4 0 CODE 0
_ADCON2bits FC0 0 ABS 0
__Htext24 0 0 ABS 0
__Ltext24 0 0 ABS 0
__ptext14 EE2 0 CODE 0
__ptext33 D6C 0 CODE 0
__Htext34 0 0 ABS 0
__Htext15 0 0 ABS 0
__Ltext34 0 0 ABS 0
__Ltext15 0 0 ABS 0
__ptext24 14CC 0 CODE 0
_PEC_calculation 250 0 CODE 0
__size_of_send_bit 0 0 ABS 0
__Htext25 0 0 ABS 0
__Ltext25 0 0 ABS 0
__ptext15 F86 0 CODE 0
__ptext34 6A0 0 CODE 0
___inthi_sp 0 0 STACK 2
__Htext16 0 0 ABS 0
__Ltext16 0 0 ABS 0
__ptext25 250 0 CODE 0
_CANSetOperationMode 157E 0 CODE 0
__Htext26 0 0 ABS 0
__Ltext26 0 0 ABS 0
__ptext16 1450 0 CODE 0
__Htext17 0 0 ABS 0
__Ltext17 0 0 ABS 0
__ptext26 102A 0 CODE 0
__Htext27 0 0 ABS 0
__Ltext27 0 0 ABS 0
__ptext17 53C 0 CODE 0
__Htext18 0 0 ABS 0
__Ltext18 0 0 ABS 0
__ptext27 BBE 0 CODE 0
_SendRequest 1554 0 CODE 0
__Htext28 0 0 ABS 0
__Ltext28 0 0 ABS 0
__ptext18 10C8 0 CODE 0
__Htext19 0 0 ABS 0
__Ltext19 0 0 ABS 0
__ptext28 125C 0 CODE 0
___fttol@sign1 33 0 COMRAM 1
__end_of_PEC_calculation 3D0 0 CODE 0
__Htext29 0 0 ABS 0
__Ltext29 0 0 ABS 0
__ptext19 14F4 0 CODE 0
___intlo_sp 0 0 STACK 2
__ptext29 C98 0 CODE 0
_data_ready 47 0 COMRAM 1
_INTCONbits FF2 0 ABS 0
__Hend_init 18 0 CODE 0
__Lend_init 14 0 CODE 0
_RXB0SIDH F61 0 ABS 0
_RXF0SIDH F00 0 ABS 0
_RXF1SIDH F04 0 ABS 0
_RXF2SIDH F08 0 ABS 0
_RXF3SIDH F0C 0 ABS 0
_RXM0SIDH F18 0 ABS 0
_RXF4SIDH F10 0 ABS 0
_RXM1SIDH F1C 0 ABS 0
_RXF5SIDH F14 0 ABS 0
_gyro_x_raw 3B 0 COMRAM 1
___ftpack@exp 16 0 COMRAM 1
_gyro_y_raw 3D 0 COMRAM 1
__size_of_OpenI2C 0 0 ABS 0
_gyro_z_raw 3F 0 COMRAM 1
__end_of_mpu_write 1372 0 CODE 0
__end_of___ftmul 9FE 0 CODE 0
mpu_init@sleep 35 0 COMRAM 1
__smallconst 0 0 SMALLCONST 0
OpenI2C@sync_mode 14 0 COMRAM 1
__Hreset_vec 4 0 CODE 0
__Lreset_vec 0 0 CODE 0
__end_of_CANInitialize 53C 0 CODE 0
__end_of_CANIDToRegs 7FE 0 CODE 0
__accesstop 60 0 ABS 0
__Hintcode_body 0 0 ABS 0
__Lintcode_body 0 0 ABS 0
__size_of_start_bit 0 0 ABS 0
__pintcode_body 9FE 0 CODE 0
_CANSetFilter 1162 0 CODE 0
__end_of_start_bit 1450 0 CODE 0
intlevel0 0 0 CODE 0
combine@upper 17 0 COMRAM 1
intlevel1 0 0 CODE 0
intlevel2 0 0 CODE 0
__end_of___awtoft 12B0 0 CODE 0
intlevel3 0 0 CODE 0
__end_of_convertAccelData 10C8 0 CODE 0
CANSetOperationMode@mode 13 0 COMRAM 1
_accel_x_upper 42 0 COMRAM 1
_accel_y_upper 44 0 COMRAM 1
_accel_z_upper 46 0 COMRAM 1
_CANInitialize 3D0 0 CODE 0
CANSetFilter@val 1E 0 COMRAM 1
__size_of_CANIDToRegs 0 0 ABS 0
combine@result 18 0 COMRAM 1
__size_of_PEC_calculation 0 0 ABS 0
start_initialization 12B0 0 CODE 0
CANSetBaudRate@BRP 13 0 COMRAM 1
CANInitialize@config 2A 0 COMRAM 1
mpu_write@command 1B 0 COMRAM 1
CANInitialize@SJW 2F 0 COMRAM 1
_getAccelGyro 18 0 CODE 0
__end_of___fttol D6C 0 CODE 0
combine@lower 13 0 COMRAM 1
CANSetFilter@code 23 0 COMRAM 1
initConfig@init_flag 92 0 BANK0 1
__end_of_mpu_read 1162 0 CODE 0
__end_of_CANSetMask 1334 0 CODE 0
CANSendMessage@Data 22 0 COMRAM 1
__size_of_CANSetMask 0 0 ABS 0
_gyro_x_upper 49 0 COMRAM 1
_gyro_y_upper 4B 0 COMRAM 1
_gyro_z_upper 4D 0 COMRAM 1
_CANSetBaudRate 13EA 0 CODE 0
__initialization 12B0 0 CODE 0
__end_of_CANSendMessage E3A 0 CODE 0
__activetblptr 2 0 ABS 0
_RXB0SIDLbits F62 0 ABS 0
__end_of_OpenI2C 153A 0 CODE 0
__size_of___ftmul 0 0 ABS 0
__end_of_mpu_init 912 0 CODE 0
__end_of_CANSetOperationMode 1592 0 CODE 0
__end_of___ftdiv C98 0 CODE 0
CANsendData@MessageData 39 0 COMRAM 1
%segments
reset_vec 0 3 CODE 0 0
intcode 8 15A0 CODE 8 0
config 300000 30000D CONFIG 300000 0
idloc 200000 200007 IDLOC 200000 0
cstackCOMRAM 1 4D COMRAM 1 1
bssBANK0 60 AD BANK0 60 1
%locals
dist/default/production\testboard.X.production.obj
C:\Program Files (x86)\Microchip\xc8\v1.30\include\pic18f2585.h
C:\Users\CHRIST~1\AppData\Local\Temp\sb6s.
4363 12B0 0 CODE 0
4365 12B0 0 CODE 0
4368 12B0 0 CODE 0
4498 12B0 0 CODE 0
4499 12B4 0 CODE 0
4500 12B6 0 CODE 0
4501 12B6 0 CODE 0
4502 12B8 0 CODE 0
4503 12BA 0 CODE 0
4506 12BC 0 CODE 0
4507 12C0 0 CODE 0
4508 12C2 0 CODE 0
4509 12C2 0 CODE 0
4510 12C4 0 CODE 0
4511 12C6 0 CODE 0
4516 12C8 0 CODE 0
4517 12CA 0 CODE 0
4518 12CC 0 CODE 0
4519 12CE 0 CODE 0
4520 12D0 0 CODE 0
4521 12D2 0 CODE 0
4522 12D4 0 CODE 0
4523 12D8 0 CODE 0
4524 12DC 0 CODE 0
4525 12DC 0 CODE 0
4526 12DE 0 CODE 0
4527 12E2 0 CODE 0
4528 12E4 0 CODE 0
4529 12E6 0 CODE 0
4535 12E8 0 CODE 0
4536 12E8 0 CODE 0
4537 12E8 0 CODE 0
4538 12EA 0 CODE 0
4539 12EC 0 CODE 0
4540 12EE 0 CODE 0
main.c
217 147C 0 CODE 0
218 147C 0 CODE 0
219 1480 0 CODE 0
234 1484 0 CODE 0
236 1490 0 CODE 0
237 149E 0 CODE 0
241 14A4 0 CODE 0
main.c
153 153A 0 CODE 0
155 153A 0 CODE 0
156 153C 0 CODE 0
158 153E 0 CODE 0
159 1540 0 CODE 0
160 1542 0 CODE 0
161 1544 0 CODE 0
162 1546 0 CODE 0
163 1548 0 CODE 0
165 154A 0 CODE 0
166 154E 0 CODE 0
167 1550 0 CODE 0
168 1552 0 CODE 0
main.c
171 AE2 0 CODE 0
174 AE2 0 CODE 0
175 AE6 0 CODE 0
176 AEA 0 CODE 0
177 AEC 0 CODE 0
178 AEE 0 CODE 0
179 AF0 0 CODE 0
180 AF2 0 CODE 0
181 AF6 0 CODE 0
182 AFE 0 CODE 0
183 B02 0 CODE 0
184 B04 0 CODE 0
185 B0A 0 CODE 0
186 B12 0 CODE 0
187 B14 0 CODE 0
190 B18 0 CODE 0
191 B1A 0 CODE 0
192 B1C 0 CODE 0
193 B2E 0 CODE 0
202 B32 0 CODE 0
205 B36 0 CODE 0
206 B44 0 CODE 0
207 B7E 0 CODE 0
209 B82 0 CODE 0
210 B90 0 CODE 0
211 B9E 0 CODE 0
212 BAC 0 CODE 0
214 BBA 0 CODE 0
215 BBC 0 CODE 0
accelgyro.c
270 7FE 0 CODE 0
275 7FE 0 CODE 0
276 802 0 CODE 0
277 808 0 CODE 0
279 81E 0 CODE 0
281 836 0 CODE 0
279 844 0 CODE 0
285 84A 0 CODE 0
288 860 0 CODE 0
291 876 0 CODE 0
294 888 0 CODE 0
296 8A0 0 CODE 0
294 8AE 0 CODE 0
301 8B4 0 CODE 0
300 8C6 0 CODE 0
305 8CA 0 CODE 0
309 8CE 0 CODE 0
310 8D6 0 CODE 0
311 8DE 0 CODE 0
313 8E6 0 CODE 0
314 8F8 0 CODE 0
315 8FA 0 CODE 0
316 8FC 0 CODE 0
317 910 0 CODE 0
accelgyro.c
149 1334 0 CODE 0
153 1338 0 CODE 0
156 1340 0 CODE 0
161 1344 0 CODE 0
163 1348 0 CODE 0
168 1354 0 CODE 0
172 1360 0 CODE 0
176 136C 0 CODE 0
177 1370 0 CODE 0
tyretemps.c
214 1554 0 CODE 0
216 1554 0 CODE 0
217 1558 0 CODE 0
218 1566 0 CODE 0
219 1568 0 CODE 0
tyretemps.c
223 156A 0 CODE 0
225 156E 0 CODE 0
226 1572 0 CODE 0
227 1578 0 CODE 0
228 157C 0 CODE 0
C:\Program Files (x86)\Microchip\xc8\v1.30\sources\pic18\plib\i2c\i2c_open.c
14 151A 0 CODE 0
16 151E 0 CODE 0
17 1522 0 CODE 0
18 1526 0 CODE 0
19 152A 0 CODE 0
20 152E 0 CODE 0
22 1532 0 CODE 0
23 1534 0 CODE 0
24 1536 0 CODE 0
26 1538 0 CODE 0
can18xx8.c
152 3D0 0 CODE 0
164 3D4 0 CODE 0
172 3DA 0 CODE 0
174 3F4 0 CODE 0
176 3FA 0 CODE 0
177 408 0 CODE 0
180 40A 0 CODE 0
183 40E 0 CODE 0
184 42C 0 CODE 0
186 44A 0 CODE 0
189 44C 0 CODE 0
193 456 0 CODE 0
194 456 0 CODE 0
195 458 0 CODE 0
196 45A 0 CODE 0
197 45C 0 CODE 0
198 45C 0 CODE 0
199 45E 0 CODE 0
200 466 0 CODE 0
186 468 0 CODE 0
205 498 0 CODE 0
206 4B2 0 CODE 0
207 4CC 0 CODE 0
208 4E6 0 CODE 0
209 500 0 CODE 0
210 51A 0 CODE 0
213 534 0 CODE 0
214 53A 0 CODE 0
can18xx8.c
236 157E 0 CODE 0
239 1582 0 CODE 0
242 1586 0 CODE 0
243 158E 0 CODE 0
242 1590 0 CODE 0
243 1592 0 CODE 0
can18xx8.c
454 12F2 0 CODE 0
462 12F6 0 CODE 0
463 12FA 0 CODE 0
465 1306 0 CODE 0
468 1312 0 CODE 0
469 1332 0 CODE 0
can18xx8.c
492 1162 0 CODE 0
500 1166 0 CODE 0
503 1168 0 CODE 0
507 1174 0 CODE 0
511 1180 0 CODE 0
515 118C 0 CODE 0
519 1198 0 CODE 0
523 11A4 0 CODE 0
524 11B0 0 CODE 0
500 11B2 0 CODE 0
528 11D4 0 CODE 0
530 11F4 0 CODE 0
can18xx8.c
281 13EA 0 CODE 0
290 13EE 0 CODE 0
291 13F0 0 CODE 0
292 13F2 0 CODE 0
293 13F4 0 CODE 0
294 13F6 0 CODE 0
297 13F8 0 CODE 0
298 1400 0 CODE 0
300 1404 0 CODE 0
301 140C 0 CODE 0
303 1410 0 CODE 0
304 1412 0 CODE 0
306 1414 0 CODE 0
307 1416 0 CODE 0
310 1418 0 CODE 0
311 141C 0 CODE 0
312 141E 0 CODE 0
314 1420 0 CODE 0
main.c
132 18 0 CODE 0
133 18 0 CODE 0
134 32 0 CODE 0
135 3A 0 CODE 0
136 3E 0 CODE 0
139 42 0 CODE 0
140 46 0 CODE 0
142 4A 0 CODE 0
143 A0 0 CODE 0
144 F6 0 CODE 0
146 14C 0 CODE 0
147 1A2 0 CODE 0
148 1F8 0 CODE 0
150 24E 0 CODE 0
accelgyro.c
201 EE2 0 CODE 0
202 EE2 0 CODE 0
203 EF4 0 CODE 0
204 F06 0 CODE 0
206 F18 0 CODE 0
207 F2A 0 CODE 0
208 F3C 0 CODE 0
210 F4E 0 CODE 0
211 F60 0 CODE 0
212 F72 0 CODE 0
213 F84 0 CODE 0
accelgyro.c
239 F86 0 CODE 0
240 F86 0 CODE 0
241 F98 0 CODE 0
242 FAA 0 CODE 0
244 FBC 0 CODE 0
245 FCE 0 CODE 0
246 FE0 0 CODE 0
248 FF2 0 CODE 0
249 1004 0 CODE 0
250 1016 0 CODE 0
251 1028 0 CODE 0
accelgyro.c
186 1450 0 CODE 0
187 1454 0 CODE 0
188 145C 0 CODE 0
189 1472 0 CODE 0
190 147A 0 CODE 0
accelgyro.c
220 53C 0 CODE 0
221 53C 0 CODE 0
222 562 0 CODE 0
223 592 0 CODE 0
225 5BA 0 CODE 0
226 606 0 CODE 0
227 652 0 CODE 0
228 69E 0 CODE 0
accelgyro.c
81 10C8 0 CODE 0
91 10CC 0 CODE 0
96 10D4 0 CODE 0
97 10D8 0 CODE 0
98 10DA 0 CODE 0
102 10E0 0 CODE 0
104 10E4 0 CODE 0
111 10F0 0 CODE 0
117 10FC 0 CODE 0
119 1104 0 CODE 0
121 1108 0 CODE 0
127 1116 0 CODE 0
129 111E 0 CODE 0
132 1122 0 CODE 0
133 1126 0 CODE 0
134 112A 0 CODE 0
135 112E 0 CODE 0
136 1132 0 CODE 0
137 113A 0 CODE 0
138 1142 0 CODE 0
139 1150 0 CODE 0
141 1154 0 CODE 0
146 115A 0 CODE 0
147 1160 0 CODE 0
SMBus.c
44 14F4 0 CODE 0
46 14F4 0 CODE 0
47 14F8 0 CODE 0
48 1500 0 CODE 0
49 1504 0 CODE 0
50 150C 0 CODE 0
51 150E 0 CODE 0
52 1516 0 CODE 0
53 1518 0 CODE 0
SMBus.c
18 1422 0 CODE 0
20 1422 0 CODE 0
21 1424 0 CODE 0
22 142C 0 CODE 0
23 142E 0 CODE 0
25 1436 0 CODE 0
26 143A 0 CODE 0
29 1442 0 CODE 0
30 1446 0 CODE 0
31 144E 0 CODE 0
SMBus.c
64 13B0 0 CODE 0
70 13B4 0 CODE 0
72 13BE 0 CODE 0
73 13C8 0 CODE 0
75 13D0 0 CODE 0
76 13D6 0 CODE 0
70 13DA 0 CODE 0
79 13E0 0 CODE 0
81 13E6 0 CODE 0
82 13E8 0 CODE 0
SMBus.c
93 1372 0 CODE 0
98 1376 0 CODE 0
100 137E 0 CODE 0
102 1388 0 CODE 0
104 1392 0 CODE 0
105 1396 0 CODE 0
106 1398 0 CODE 0
109 139A 0 CODE 0
110 139E 0 CODE 0
100 13A0 0 CODE 0
114 13A6 0 CODE 0
116 13AC 0 CODE 0
117 13AE 0 CODE 0
SMBus.c
122 14A4 0 CODE 0
123 14A8 0 CODE 0
124 14B2 0 CODE 0
125 14B4 0 CODE 0
126 14B6 0 CODE 0
127 14B8 0 CODE 0
128 14BA 0 CODE 0
129 14BC 0 CODE 0
130 14C2 0 CODE 0
131 14C6 0 CODE 0
134 14CA 0 CODE 0
SMBus.c
139 14CC 0 CODE 0
143 14CC 0 CODE 0
144 14CE 0 CODE 0
145 14D0 0 CODE 0
146 14D6 0 CODE 0
147 14E0 0 CODE 0
148 14E8 0 CODE 0
149 14EC 0 CODE 0
151 14F0 0 CODE 0
152 14F2 0 CODE 0
CRC8.c
11 250 0 CODE 0
14 250 0 CODE 0
20 258 0 CODE 0
21 258 0 CODE 0
22 260 0 CODE 0
23 268 0 CODE 0
24 270 0 CODE 0
25 278 0 CODE 0
26 280 0 CODE 0
27 288 0 CODE 0
28 290 0 CODE 0
31 298 0 CODE 0
32 2A0 0 CODE 0
33 2A8 0 CODE 0
34 2AA 0 CODE 0
35 2AC 0 CODE 0
36 2B4 0 CODE 0
37 2B6 0 CODE 0
39 2B8 0 CODE 0
40 2C0 0 CODE 0
33 2C2 0 CODE 0
44 2FC 0 CODE 0
48 302 0 CODE 0
49 304 0 CODE 0
50 312 0 CODE 0
51 342 0 CODE 0
54 348 0 CODE 0
56 350 0 CODE 0
57 364 0 CODE 0
49 378 0 CODE 0
59 37C 0 CODE 0
48 37E 0 CODE 0
64 382 0 CODE 0
65 38C 0 CODE 0
64 3B4 0 CODE 0
67 3BC 0 CODE 0
69 3C4 0 CODE 0
70 3CE 0 CODE 0
accelgyro.c
254 102A 0 CODE 0
255 102A 0 CODE 0
256 105E 0 CODE 0
257 1092 0 CODE 0
259 10C6 0 CODE 0
C:\Program Files (x86)\Microchip\xc8\v1.30\sources\common\ftdiv.c
49 BBE 0 CODE 0
55 BBE 0 CODE 0
57 BD8 0 CODE 0
58 BF0 0 CODE 0
59 BFE 0 CODE 0
60 C0A 0 CODE 0
61 C10 0 CODE 0
62 C14 0 CODE 0
63 C18 0 CODE 0
64 C1C 0 CODE 0
65 C1E 0 CODE 0
66 C2A 0 CODE 0
67 C2C 0 CODE 0
68 C38 0 CODE 0
69 C40 0 CODE 0
70 C40 0 CODE 0
71 C48 0 CODE 0
72 C58 0 CODE 0
73 C64 0 CODE 0
74 C66 0 CODE 0
75 C66 0 CODE 0
76 C6E 0 CODE 0
77 C72 0 CODE 0
78 C96 0 CODE 0
C:\Program Files (x86)\Microchip\xc8\v1.30\sources\common\awtoft.c
32 125C 0 CODE 0
36 125C 0 CODE 0
37 1264 0 CODE 0
38 1278 0 CODE 0
39 1280 0 CODE 0
41 1288 0 CODE 0
42 12AE 0 CODE 0
C:\Program Files (x86)\Microchip\xc8\v1.30\sources\common\fttol.c
44 C98 0 CODE 0
49 C98 0 CODE 0
51 CB2 0 CODE 0
52 CD8 0 CODE 0
53 CDA 0 CODE 0
54 CE6 0 CODE 0
55 CF4 0 CODE 0
56 CF8 0 CODE 0
57 CFC 0 CODE 0
60 D0C 0 CODE 0
61 D16 0 CODE 0
63 D1C 0 CODE 0
64 D22 0 CODE 0
66 D34 0 CODE 0
67 D3E 0 CODE 0
65 D40 0 CODE 0
70 D44 0 CODE 0
71 D4A 0 CODE 0
72 D5A 0 CODE 0
73 D6A 0 CODE 0
C:\Program Files (x86)\Microchip\xc8\v1.30\sources\common\ftmul.c
51 912 0 CODE 0
56 912 0 CODE 0
58 92C 0 CODE 0
59 944 0 CODE 0
60 952 0 CODE 0
61 958 0 CODE 0
62 95C 0 CODE 0
63 960 0 CODE 0
64 964 0 CODE 0
66 966 0 CODE 0
67 968 0 CODE 0
68 974 0 CODE 0
69 980 0 CODE 0
71 988 0 CODE 0
72 98C 0 CODE 0
73 998 0 CODE 0
74 9A0 0 CODE 0
75 9A8 0 CODE 0
76 9AC 0 CODE 0
78 9B4 0 CODE 0
79 9B8 0 CODE 0
80 9C4 0 CODE 0
81 9CC 0 CODE 0
82 9D4 0 CODE 0
83 9D8 0 CODE 0
84 9FC 0 CODE 0
C:\Program Files (x86)\Microchip\xc8\v1.30\sources\common\float.c
62 E3A 0 CODE 0
64 E3A 0 CODE 0
65 E4A 0 CODE 0
67 E58 0 CODE 0
68 E5A 0 CODE 0
66 E62 0 CODE 0
71 E80 0 CODE 0
72 E82 0 CODE 0
73 E8E 0 CODE 0
70 E96 0 CODE 0
76 EB4 0 CODE 0
77 EB6 0 CODE 0
75 EBE 0 CODE 0
79 EC2 0 CODE 0
80 EC4 0 CODE 0
81 EC6 0 CODE 0
82 ECA 0 CODE 0
83 ECE 0 CODE 0
84 ED2 0 CODE 0
85 ED4 0 CODE 0
86 EE0 0 CODE 0
main.c
74 11F6 0 CODE 0
78 11F6 0 CODE 0
79 11FA 0 CODE 0
81 120E 0 CODE 0
82 1220 0 CODE 0
84 125A 0 CODE 0
can18xx8.c
558 D6C 0 CODE 0
567 D6C 0 CODE 0
570 D72 0 CODE 0
571 D76 0 CODE 0
572 D78 0 CODE 0
573 D7A 0 CODE 0
576 D80 0 CODE 0
577 D84 0 CODE 0
578 D88 0 CODE 0
579 D8A 0 CODE 0
582 D90 0 CODE 0
583 D94 0 CODE 0
596 D96 0 CODE 0
600 D9C 0 CODE 0
601 DA0 0 CODE 0
602 DC4 0 CODE 0
604 DC6 0 CODE 0
607 DEA 0 CODE 0
609 DEE 0 CODE 0
610 DF0 0 CODE 0
613 DF2 0 CODE 0
614 DFA 0 CODE 0
615 E04 0 CODE 0
614 E28 0 CODE 0
631 E32 0 CODE 0
638 E34 0 CODE 0
641 E38 0 CODE 0
can18xx8.c
341 6A0 0 CODE 0
347 6A0 0 CODE 0
349 6A8 0 CODE 0
352 6AC 0 CODE 0
353 6CE 0 CODE 0
354 6F6 0 CODE 0
355 6FA 0 CODE 0
356 71E 0 CODE 0
360 720 0 CODE 0
361 748 0 CODE 0
362 770 0 CODE 0
363 774 0 CODE 0
365 79C 0 CODE 0
366 7A8 0 CODE 0
367 7C8 0 CODE 0
368 7CC 0 CODE 0
369 7E4 0 CODE 0
370 7E8 0 CODE 0
372 7FC 0 CODE 0
can18xx8.c
372 8 0 CODE 0
main.c
61 8 0 CODE 0
main.c
61 9FE 0 CODE 0
62 A30 0 CODE 0
63 A34 0 CODE 0
64 A36 0 CODE 0
65 A38 0 CODE 0
66 A3C 0 CODE 0
67 A3E 0 CODE 0
68 A56 0 CODE 0
67 AA2 0 CODE 0
71 AA8 0 CODE 0
